:030000000209F5FD
:0C09F500787FE4F6D8FD75810E02096ED3
:0C092500C2A5C2A78980D2A77F017E0076
:10093100D3EF9400EE9400400F7DC77C01DCFEDD17
:08094100FAEF1F70EB1E80E8C5
:01094900228B
:10094A00E4FBC2A6D2A5D2A77F01FE120931E58037
:10095A0030E70C0BEBD3946440F4C2A77F0022C2A9
:03096A00A77F0163
:01096D002267
:0808FD002480FF1209057F8031
:02090500A90740
:10090700E4FA12094AEF700E7F01FE1209310AEA72
:0D091700D3946440ED22C2A6120925C2A7A8
:0109240022B0
:0A08AA00AB08AA09A90A1209C9FF48
:0208B400A90792
:1008B600E4FA12094AEF700E7F01FE1209310AEAC4
:0D08C600D3946440ED22D2A6120925C2A7EA
:0108D3002202
:1008D400E4FA12094AEF70107F01FE1209310AEAA4
:1008E400D3946440ED7F0022D2A6D2A5C2A71209F8
:0808F4002D12092BAF80C2A7F1
:0108FC0022D9
:1009E200D2B2D2B47F301209057F0C1209057F0101
:0309F200020905F2
:100879007F34120905E4F50DE50D1208FDE4F50EC6
:100889007FFF1208B4050EE50EC3942040F2050D52
:10089900E50DC3942040E17F361209057F30020936
:0108A9000549
:10099000EF70047F808013BF01047F90800CBF0242
:1009A000047F888005BF03027F98EF2DFF020905B1
:060803008B088A09890A36
:100809001208797F34120905E4F50BE50B1208FD8E
:10081900E4F50C1208AA7401250AF50AE43509F56C
:1008290009050CE50CC3941040E9050BE50BC394CD
:100839002040D8E4F50BE50B2480FF1209057F88D9
:10084900120905E4F50C1208AA7401250AF50AE44F
:100859003509F509050CE50CC3941040E9050BE5CC
:100869000BC3942040D07F361209057F3002090559
:1000030000000004000000000000000000000000E9
:1000130000000000000000000000000000000000DD
:100023000000000000013FC08042042000000000E7
:100033000000000000008A1FFC4204F800000000DA
:100043000000000000003F8001FFDE880000000088
:100053000000000000012A87F0A20AF80000000057
:10006300000000000000BF8410A20A880000000006
:10007300000000000000801FFCA20AF8000000003E
:100083000000000000009F90052FCAA4000000009C
:100093000000000000018003E1A84AA8000000005E
:1000A300000000000000BFC224484490000000008C
:1000B300000000000000928424A84AA80000000069
:1000C300000000000000A6583D0FD0C4000000004F
:1000D300000000000000000000000000000000001D
:1000E300001CFFC000000000000000000000000032
:1000F300002308378000000000000000000000001B
:10010300004010084000FF901008000000000000AD
:10011300008186104000080810FF860000000000E0
:100123000102494040007F0BFC080F000000000063
:10013300010800402000100010490F0000000000DB
:10014300020800202001FFDD102A0F00000000003C
:10015300043183202000200491FFC600000000002A
:100163000452449020007F04901C0600000000000D
:1001730009A4284C1000A104102A0000000000006C
:100183000E44E9C390013F047049060000000000DB
:100193000082C5817000210A0188C60000000000AA
:1001A3000101830080003F11FC08000000000000F3
:1001B300010C70008000000000000000000000003F
:1001C3000213871040000000000000000000000040
:1001D300022078A0400000000000000000000000A2
:1001E300022000604000000000000000000000004A
:1001F3000221806040000071EE3C0000000000001E
:10020300011198908000008E31C6000000000000AC
:1002130001081880800001242483000000000000EE
:1002230000960101000001402803000000000000C7
:10023300004986030000014028030000000000007D
:100243000034788C0000010020030000000000004F
:10025300000E0130000000803006000000000000A6
:10026300007187CE00000040680C00000000000011
:1002730000E0780700000020C41800000000000020
:1002830001AFFFC5800000118230000000000000B4
:1002930003A9B645C000000B016000000000000088
:1002A300072F03C4E000000600C0000000000000A8
:1002B3000E1601887000000000000000000000001E
:1002C3000F080010F0000000000000000000000014
:1002D3000F840021F0000000000000000000000077
:1002E300000000000000000000000000000000000B
:1002F30000000000000000000000000000000000FB
:1003030000000000000000000000000000000000EA
:1003130000000000000000000000000000000000DA
:1003230000000000000000000000000000000000CA
:1003330000000000000000000000000000000000BA
:1003430000000000000000000000000000000000AA
:10035300000000000000000000000000000000009A
:10036300000000000000000000000000000000008A
:10037300000000000000000000000000000000007A
:10038300000000000000000000000000000000006A
:10039300000000000000000000000000000000005A
:1003A300000000000000000000000000000000004A
:1003B300000000000000000000000000000000003A
:1003C300000000000000000000000000000000002A
:1003D300000000000000000000000000000000001A
:1003E300000000000000000000000000000000000A
:1003F30000000000000000000000000000000000FA
:1004030000000000000000000000000000000000E9
:1004130000000000000000000000000000000000D9
:1004230000000000000000000000000000003F008A
:1004330000000000000000000000000000004080F9
:100443000000000000000000000000000001FE604A
:100453000000000000000000000000000001632015
:100463000000000000000000000000000002631014
:10047300000000000000000000000000000463080A
:1004830000000000000000000000000000047E08DF
:1004930000000000000000000000000000046C08E1
:1004A3001FF83FF87FF00FF9F1F0FF87C3C46C0822
:1004B3000E7C1EFC38F83EF8E0E01C03C18466089D
:1004C3000E1E1C3C38383838E0E01C03E184660813
:1004D3000E1E1C1C38187838E0E01C03E182631000
:1004E3000E0E1C1C3800F018E0E01C03F181F3A091
:1004F3000E0E1C3C38C0F000E0E01C03F18180606C
:100503000E1E1C3C38C0F000E0E01C0379804080E4
:100513000E1E1CF839C0E000E0E01C0379803F00A8
:100523000E7C1FF03FC0E000FFE01C033D80000095
:100533000FF81DE039C0E000E0E01C033D8000003F
:100543000E001DE038C0E000E0E01C031F80000047
:100553000E001CF038C0F000E0E01C031F80000018
:100563000E001CF03800F000E0E01C030F800000D8
:100573000E001C783800F018E0E01C030F80000028
:100583000E001C7838187038E0E01C030780000068
:100593000E001C7838387830E0E01C030780000038
:1005A3000E001C3C38F83EF0E0E01C030380000022
:1005B3001F003E3E7FF01FE1F1F0FF8783800000C4
:1005C3000000000000000000000000000000000028
:1005D3000000000000000000000000000000000018
:1005E3000000000000000000000000000000000008
:1005F30000000000000000000000000000000000F8
:1006030000000000000000000000000000000000E7
:1006130000000000000000000000000000000000D7
:1006230000000000000000000000000000000000C7
:100633000000F03800007800001807801C038000D9
:1006430000007C7C00007800007C07801C03C00055
:1006530000003C700000700007FC07001C038000D2
:1006630000001CE3C00070001FE1C7001C038000F2
:10067300000FFFFFE000700000E1E7001C038000B3
:1006830000061CE600FFFFFC00E0F7001D839E0050
:1006930000071CE780FFFFFC00E0F703FFFFFE00FD
:1006A30000039CEF80E0703800EE67001C038000BD
:1006B3000003DCEE00E070383FFE07001C038000FF
:1006C3000001FCFC00E0703801E007001C0380001F
:1006D3000001DCF8E0E0703801E1C7001DC3B80099
:1006E300003FFFFFF0E0703803F1E7001FFFFC005D
:1006F300003FFFFFF0E0703803FCE7007E3838006E
:100703000000800C00FFFFF807FEE7E3FC18780009
:100713000000FFFE00E0703807FE07F3FC1C7000CA
:100723000000FFFE00E070380FEC3FC19C1CF0009E
:100733000000E01E000070000EE7FF001C0EE0004A
:100743000000E01E000070001CEF07001C0FE0001B
:100753000000FFFE0000700038E007001C07C00027
:100763000000E01E0000700030E007001C0780005E
:100773000000E01E0000700000E007001C0FE00016
:100783000000E01E0000700000E00701DC3FF800FD
:100793000000FFFE0000700000E00701FC78FF008E
:1007A3000000E01E0000700000E007007FE03F0053
:1007B3000000C01C0000700000C0070037800C0060
:1007C3000000000000000000000000000000000026
:1007D3000FFFFFFFFFFFFFFFFFFFFFFFFFFFFFFC19
:1007E3000FFFFFFFFFFFFFFFFFFFFFFFFFFFFFFC09
:1007F30000000000000000000000000000000000F6
:10096E007BFF7A0079031208037FF47E011209B02F
:10097E007BFF7A0479031208037FF47E011209B01B
:02098E0080DE09
:1009B000D3EF9400EE9400400F7D267C82DCFEDDB8
:0809C000FAEF1F70EB1E80E846
:0109C800220C
:1009C900BB010689828A83E0225002E722BBFE022C
:0909D900E32289828A83E493225F
:00000001FF
